gcCount, fromBeforeGC, fromAfterGC, fromLive, coldBeforeGC, coldAfterGC, coldLive, revitalized, lineNum, allocations
1,29976,19648,269,0,0,0,0,1946,444
2,34440,26360,385,0,0,0,0,3130,699
3,39648,38832,567,0,0,0,0,3863,898
4,45608,44032,675,0,0,0,0,4358,1027
5,52408,50744,804,0,0,0,0,4948,1178
6,60304,59800,968,0,0,0,0,6065,1356
7,69384,65200,1048,0,0,0,0,6667,1511
8,79768,79160,1248,0,0,0,0,7503,1713
9,91720,87472,1402,0,0,0,0,8969,1903
10,105528,103840,1533,0,0,0,0,9599,2070
11,121344,119232,1903,0,0,0,0,10847,2469
12,139536,139048,2179,0,0,0,0,12031,2753
13,158832,157296,2588,0,0,0,0,14049,3192
14,183240,182616,2602,0,0,0,0,14171,3218
15,200744,200624,2612,0,0,0,0,14236,3231
16,244064,232400,2831,0,0,0,0,15921,3638
17,280704,267336,2998,0,0,0,0,17532,4024
18,322576,266640,3314,0,0,0,0,20344,4738
19,371200,307976,3755,0,0,0,0,25582,5950
20,426888,348784,4424,0,0,0,0,36762,7836
21,489984,403104,5092,0,0,0,0,44085,9423
22,564560,435432,5339,0,11640,169,0,52393,11318
23,649240,456760,5033,11640,49808,650,0,59592,12863
24,746616,335968,3304,49808,130648,1638,0,72698,15481
25,746576,401760,2980,130648,156384,2138,0,82021,17293
26,746664,531848,2570,156384,181672,2544,0,88835,18760
27,858368,484192,2306,181672,196480,2741,0,94102,20180
28,858576,465272,2160,196480,212040,3004,0,98661,21439
29,857568,444504,2030,212040,228208,3192,0,103527,22754
30,858520,411456,2100,228208,240384,3368,0,108659,24141
31,856680,383896,2291,240384,247984,3476,0,114142,25634
32,856632,394896,2625,247984,248832,3488,0,119933,27199
33,858672,325752,2785,248832,255344,3565,0,125525,28718
34,854496,297040,2770,255344,270240,3779,0,132728,30583
35,854984,230536,3218,270240,318608,4335,0,148261,34344
36,855400,225864,3097,318608,321008,4395,0,149242,34595
37,847584,222792,3019,321008,322512,4432,0,149859,34752
38,857944,228312,2955,322512,323792,4464,0,150360,34880
39,858352,218344,2904,323792,324776,4489,0,150793,34991
40,849472,216408,2855,324776,325712,4512,0,151175,35088
41,858152,214760,2812,325712,326512,4532,0,151528,35178
42,851640,213424,2777,326512,327152,4548,0,151851,35261
43,846504,224608,2737,327152,327952,4568,0,152146,35336
44,856272,223984,2703,327952,328592,4584,0,152428,35408
45,847976,209304,2671,328592,329232,4600,0,152697,35477
46,851232,208048,2639,329232,329872,4616,0,152955,35543
47,831152,206752,2606,329872,330512,4632,0,153196,35604
48,837928,205696,2579,330512,330992,4644,0,153431,35664
49,845720,204592,2550,330992,331632,4660,0,153660,35723
50,832560,203496,2522,331632,332112,4672,0,153878,35778
51,834320,202512,2497,332112,332592,4684,0,154089,35832
52,851288,201512,2471,332592,333072,4696,0,154301,35886
53,850240,200608,2447,333072,333576,4709,0,154506,35939
54,827496,199584,2421,333576,334056,4721,0,154700,35988
55,824312,198680,2398,334056,334512,4732,0,154888,36036
56,838784,198016,2378,334512,334992,4744,0,155076,36084
57,852448,198000,2366,334992,335472,4756,0,155264,36132
58,845680,198048,2356,335472,335952,4768,0,155446,36179
59,815784,198072,2346,335952,336272,4776,0,155617,36222
60,849184,219800,2335,336272,336688,4787,0,155790,36266
61,839008,220304,2326,336688,337072,4796,0,155953,36308
62,850368,220616,2316,337072,337448,4806,0,156119,36350
63,816208,198056,2306,337448,337872,4816,0,156275,36390
64,849624,198056,2298,337872,338192,4824,0,156439,36432
65,836632,198144,2288,338192,338672,4836,0,156598,36473
66,847304,222240,2278,338672,338992,4844,0,156752,36512
67,857960,198064,2268,338992,339368,4854,0,156909,36552
68,844288,222976,2258,339368,339792,4864,0,157059,36590
69,854816,198312,2252,339792,340112,4872,0,157209,36629
70,840048,198256,2242,340112,340432,4880,0,157356,36666
71,822776,198280,2234,340432,340752,4888,0,157497,36702
72,830896,198272,2225,340752,341096,4897,0,157638,36738
73,858392,115824,1527,341096,341096,4897,0,178196,40993
74,858568,148264,2086,341096,360944,5155,0,194704,44496
75,850976,171368,2269,360944,360944,5155,0,207514,47159
76,858640,154528,2130,360944,367688,5288,0,214158,48570
77,858632,143928,1619,367688,431592,6110,0,228376,51482
78,857992,149304,988,431592,455384,6318,0,245569,54926
79,856608,367872,3302,455384,471840,6518,0,270719,59473
80,854872,358216,3323,471840,476808,6598,0,282970,62034
81,858184,288104,3299,476808,550888,6733,0,297687,65096
82,857864,280552,2867,550888,699432,8393,0,324356,68896
83,857016,460944,4939,699432,460944,4939,0,344841,73417
84,858632,454768,4787,858632,454768,4787,528,359758,76953
85,858560,450864,4690,858560,450864,4690,275,375887,80597
86,858592,439816,4469,858592,439816,4469,2205,401521,84954
87,858640,422472,4296,858640,422472,4296,730,428275,88667
88,858624,413064,4183,858624,413064,4183,1832,460082,93961
89,846912,409896,4136,846912,409896,4136,1509,484680,97684
90,854184,409128,4127,854184,409128,4127,636,493413,98943
91,842640,407832,4105,842640,407832,4105,458,500241,99891
92,853872,407112,4097,853872,407112,4097,466,506803,100835
93,848112,406232,4085,848112,406232,4085,584,515461,102068
94,853792,405320,4074,853792,405320,4074,666,524226,103339
95,856728,403832,4050,856728,403832,4050,787,534481,104812
96,858608,393704,4013,858608,393704,4013,4381,580152,111829
97,858576,413616,4395,858576,413616,4395,4998,634219,120115
98,858664,413536,4393,858664,413536,4393,5186,679771,127480
99,858584,423224,4588,858584,423224,4588,4904,731400,135400
100,858656,421736,4566,858656,421736,4566,4729,777386,142526
101,858640,421736,4566,858640,421736,4566,5657,819012,149977
102,858672,421624,4565,858672,421624,4565,5947,861731,157682
103,858632,421592,4564,858632,421592,4564,5381,904727,164915
104,858640,421592,4564,858640,421592,4564,4793,942599,171319
105,858616,418584,4497,858616,418584,4497,1840,983772,176336
106,858272,345056,4339,858272,345056,4339,1418,1027172,181335
107,858616,337000,4188,858616,337000,4188,853,1072476,186296
108,858320,332984,4104,858320,332984,4104,843,1119005,191386
109,858656,328168,4007,858656,328168,4007,875,1166562,196570
110,858408,327896,4001,858408,327896,4001,877,1213140,201738
111,858664,327896,4001,858664,327896,4001,828,1256274,206477
112,858656,327896,4001,858656,327896,4001,735,1293233,210486
113,858264,327896,4001,858264,327896,4001,679,1328849,214263
114,858280,327896,4001,858280,327896,4001,644,1361502,217731
115,858480,327896,4001,858480,327896,4001,616,1389460,220676
116,858664,327896,4001,858664,327896,4001,517,1414334,223252
117,858672,327896,4001,858672,327896,4001,484,1441938,226167
118,858448,326432,3973,858448,326432,3973,568,1462358,229464
119,855480,296016,3894,855480,296016,3894,502,1471130,231197
120,846968,296016,3894,846968,296016,3894,59,1472297,231450
121,854864,296016,3894,854864,296016,3894,52,1472456,231502
122,853936,295904,3893,853936,295904,3893,241,1474325,231954
123,858592,291456,3817,858592,291456,3817,2279,1520719,238934
124,858656,313160,4140,858656,313160,4140,1487,1582430,245586
125,858656,323816,4353,858656,323816,4353,1874,1644431,252440
126,858616,337288,4596,858616,337288,4596,1908,1699705,258375
127,858648,332496,4537,858648,332496,4537,1318,1758199,265012
128,858624,340152,4666,858624,340152,4666,1423,1816112,270959
129,853384,340088,4664,853384,340088,4664,1469,1865485,276263
130,858664,347696,4735,858664,347696,4735,1644,1926078,284128
131,858608,390320,5420,858608,390320,5420,1439,2009099,292020
132,858640,418928,5872,858640,418928,5872,1591,2082551,298908
133,858608,434936,6128,858608,434936,6128,1477,2143525,304896
134,858648,435000,6171,858648,435000,6171,2029,2198657,310855
135,858640,443096,6315,858640,443096,6315,1074,2257341,317206
136,858656,442816,6332,858656,442816,6332,1160,2312720,322967
137,858648,450776,6478,858648,450776,6478,1336,2371135,328835
138,858664,446440,6427,858664,446440,6427,1500,2421288,334261
139,858656,444568,6401,858656,444568,6401,1140,2466167,339549
140,857664,440912,6362,857664,440912,6362,1042,2513249,345224
141,858664,429984,6276,858664,429984,6276,1092,2564734,351140
142,858656,429120,6262,858656,429120,6262,1366,2612992,356323
143,858672,426096,6224,858672,426096,6224,1408,2659011,361695
144,855776,423408,6192,855776,423408,6192,1151,2702362,367010
145,858632,421064,6161,858632,421064,6161,816,2740044,371377
146,858664,421648,6184,858664,421648,6184,1112,2794143,377447
147,858672,418904,6150,858672,418904,6150,1101,2843961,383176
148,856752,418008,6137,856752,418008,6137,1266,2877675,387327
149,858664,414480,6098,858664,414480,6098,1512,2924593,393265
150,858640,414096,6099,858640,414096,6099,1881,2975961,400158
151,858616,418104,6226,858616,418104,6226,1629,3031088,407098
152,858504,410608,6063,858504,410608,6063,513,3057439,412240
153,858632,410248,6057,858632,410248,6057,2418,3107940,419870
154,858656,413944,6143,858656,413944,6143,2075,3168049,428235
155,858656,413912,6142,858656,413912,6142,1343,3219135,436045
156,858672,413864,6141,858672,413864,6141,979,3266071,443839
157,858648,418960,6258,858648,418960,6258,1364,3324656,452402
158,858672,418968,6260,858672,418968,6260,1373,3377525,460525
159,858656,419016,6260,858656,419016,6260,978,3428773,468538
160,858672,418952,6260,858672,418952,6260,2390,3482737,476930
161,858664,416832,6237,858664,416832,6237,1147,3518760,482935
162,858616,419832,6370,858616,419832,6370,2104,3576767,490928
163,858616,418088,6356,858616,418088,6356,532,3629283,499053
164,858648,418712,6390,858648,418712,6390,2348,3683692,507034
165,858672,420288,6416,858672,420288,6416,1707,3738956,515302
166,858656,418464,6394,858656,418464,6394,932,3794516,523604
167,858656,418192,6392,858656,418192,6392,1540,3847526,531936
168,858640,418496,6397,858640,418496,6397,670,3901816,539948
169,858648,419056,6407,858648,419056,6407,2314,3955402,548202
170,858672,431120,6707,858672,431120,6707,2664,4014318,557092
171,858584,421928,6499,858584,421928,6499,1756,4067464,565230
172,857952,418544,6406,857952,418544,6406,242,4089976,569979
173,858608,418336,6403,858608,418336,6403,130,4094500,570834
174,858672,417312,6391,858672,417312,6391,2171,4143304,578357
175,858632,417544,6408,858632,417544,6408,1665,4196514,586090
176,858640,421208,6490,858640,421208,6490,1438,4254965,593930
177,858624,418752,6424,858624,418752,6424,991,4308410,601668
178,858560,420016,6449,858560,420016,6449,1149,4364912,609825
179,858640,430952,6689,858640,430952,6689,2917,4423168,618495
180,858600,423472,6535,858600,423472,6535,1035,4470298,625580
181,858672,423856,6555,858672,423856,6555,1376,4526522,633876
182,858648,426984,6628,858648,426984,6628,2324,4585068,642486
183,858640,430136,6716,858640,430136,6716,1713,4639676,650607
184,858632,426400,6621,858632,426400,6621,1485,4670563,656507
185,858640,442056,6986,858640,442056,6986,2574,4728990,665077
186,858640,433944,6766,858640,433944,6766,3101,4785203,673138
187,858552,432448,6750,858552,432448,6750,886,4828223,679780
188,858648,431560,6735,858648,431560,6735,1943,4866867,685900
189,858656,432912,6757,858656,432912,6757,1426,4929697,694154
190,858656,460232,7359,858656,460232,7359,2262,4988744,702588
191,858560,430944,6738,858560,430944,6738,838,5022143,708430
192,858608,427856,6693,858608,427856,6693,1109,5051356,712896
193,858640,451888,7204,858640,451888,7204,2096,5110034,721522
194,858672,435008,6902,858672,435008,6902,2758,5169581,729480
195,858640,446088,7174,858640,446088,7174,2897,5227303,738019
196,858624,434000,6892,858624,434000,6892,1804,5275651,745075
197,858160,433200,6873,858160,433200,6873,488,5300675,750433
198,858648,432072,6861,858648,432072,6861,959,5316326,753389
199,858664,431920,6858,858664,431920,6858,2409,5366446,760900
200,858632,443336,7117,858632,443336,7117,2109,5423093,769732
201,858632,435688,6927,858632,435688,6927,1648,5483094,777777
202,858672,435144,6920,858672,435144,6920,922,5534700,785721
203,858648,434256,6905,858648,434256,6905,1854,5582066,793381
204,858656,440688,7069,858656,440688,7069,2938,5636673,801857
205,858672,449880,7301,858672,449880,7301,2747,5693048,810358
206,858656,456384,7466,858656,456384,7466,2990,5748230,818764
207,858648,460312,7575,858648,460312,7575,2782,5801800,826892
208,858664,466928,7742,858664,466928,7742,2240,5857246,834995
209,858608,445840,7208,858608,445840,7208,1385,5896441,841052
210,858608,441528,7096,858608,441528,7096,400,5916966,845493
211,858360,437440,6976,858360,437440,6976,367,5937091,849915
212,854488,436200,6946,854488,436200,6946,317,5952949,853319
213,852992,435992,6940,852992,435992,6940,158,5957398,854226
214,857392,435992,6940,857392,435992,6940,113,5961095,854989
215,857360,435992,6940,857360,435992,6940,111,5963512,855455
216,858656,435992,6940,858656,435992,6940,1504,5991934,860094
217,858648,443216,7116,858648,443216,7116,2246,6048193,868802
218,858648,451592,7314,858648,451592,7314,1937,6105632,877331
219,858624,455704,7416,858624,455704,7416,2138,6160207,885691
220,858600,457664,7462,858600,457664,7462,2242,6213124,893818
221,858664,460520,7532,858664,460520,7532,2164,6268239,902085
222,858672,442480,7068,858672,442480,7068,1235,6335815,910099
223,857928,442080,7062,857928,442080,7062,988,6370950,915419
224,858480,437280,6989,858480,437280,6989,1374,6405559,920513
225,858648,436080,6962,858648,436080,6962,931,6426500,924379
226,858656,434288,6942,858656,434288,6942,2939,6462161,931103
227,858656,429168,6872,858656,429168,6872,1245,6509275,937559
228,858664,428408,6864,858664,428408,6864,1328,6550373,943098
229,851312,427208,6845,851312,427208,6845,1526,6591708,950509
230,858672,423144,6793,858672,423144,6793,919,6635191,956561
231,858656,421032,6764,858656,421032,6764,581,6680902,964141
232,858672,416936,6711,858672,416936,6711,569,6721878,970560
233,858032,407208,6465,858032,407208,6465,512,6738279,973089
234,858488,406480,6444,858488,406480,6444,302,6741144,973667
235,858616,405544,6428,858616,405544,6428,1068,6773984,979149
236,858624,386184,6365,858624,386184,6365,1248,6817547,984385
237,858640,397888,6566,858640,397888,6566,1577,6879270,992074
238,858600,396736,6557,858600,396736,6557,1227,6934288,999406
239,858640,395352,6537,858640,395352,6537,1070,6981718,1006187
240,858656,395416,6540,858656,395416,6540,1574,7037119,1013259
241,858632,393440,6511,858632,393440,6511,666,7077817,1020267
242,854760,384504,6314,854760,384504,6314,388,7119520,1027485
243,858664,382840,6296,858664,382840,6296,1053,7162711,1034822
244,858648,382256,6289,858648,382256,6289,524,7195888,1041192
245,858656,376680,6226,858656,376680,6226,616,7231829,1046595
246,858648,375832,6214,858648,375832,6214,686,7273172,1053503
247,852440,374104,6173,852440,374104,6173,487,7299410,1058089
248,858664,372808,6156,858664,372808,6156,809,7345851,1064668
249,858288,371744,6135,858288,371744,6135,517,7381034,1069669
250,858568,374568,6190,858568,374568,6190,631,7438189,1076089
251,858624,373312,6171,858624,373312,6171,278,7479850,1082023
252,858616,370880,6133,858616,370880,6133,430,7512696,1087246
253,858656,366608,6059,858656,366608,6059,612,7560063,1093432
254,857032,355320,5838,857032,355320,5838,751,7602491,1098672
255,851248,355072,5832,851248,355072,5832,760,7638843,1103675
256,858656,353712,5807,858656,353712,5807,1030,7674520,1108004
257,857896,359632,5897,857896,359632,5897,975,7731467,1115519
258,856032,357936,5870,856032,357936,5870,849,7781184,1122628
259,858656,357480,5865,858656,357480,5865,834,7824195,1128935
260,858656,356648,5853,858656,356648,5853,901,7857314,1133412
261,858648,370432,6077,858648,370432,6077,708,7919413,1141842
262,858584,361528,5902,858584,361528,5902,757,7963551,1148058
263,858608,359592,5854,858608,359592,5854,927,7999180,1153073
264,858624,359040,5847,858624,359040,5847,737,8047260,1160921
265,858672,358088,5826,858672,358088,5826,882,8091276,1167241
266,858672,357856,5822,858672,357856,5822,830,8137545,1174154
267,858664,356824,5804,858664,356824,5804,764,8179348,1180297
268,858632,356328,5798,858632,356328,5798,439,8221886,1187142
269,858616,354856,5773,858616,354856,5773,856,8262654,1192998
270,858616,352496,5743,858616,352496,5743,684,8305686,1199919
271,858632,351760,5734,858632,351760,5734,639,8352473,1207544
272,858584,351168,5719,858584,351168,5719,699,8396296,1214370
273,858648,351280,5726,858648,351280,5726,514,8450214,1222706
274,858656,350384,5711,858656,350384,5711,302,8489973,1229899
275,858632,348440,5678,858632,348440,5678,394,8524259,1235971
276,858640,346736,5652,858640,346736,5652,736,8563824,1241464
277,854352,343672,5598,854352,343672,5598,155,8603416,1249106
278,856944,332440,5347,856944,332440,5347,485,8642063,1254577
279,858600,332192,5344,858600,332192,5344,726,8675991,1259107
280,856448,344848,5535,856448,344848,5535,817,8736230,1267226
281,858608,343568,5521,858608,343568,5521,905,8773518,1272551
282,858648,341360,5495,858648,341360,5495,862,8816024,1278666
283,858648,340440,5478,858648,340440,5478,875,8864337,1284809
284,857344,340400,5477,857344,340400,5477,617,8900262,1290473
285,858664,338512,5454,858664,338512,5454,437,8936265,1296892
286,858664,338392,5451,858664,338392,5451,132,8972463,1303991
287,858632,336424,5413,858632,336424,5413,737,9007674,1308751
288,858168,335632,5398,858168,335632,5398,595,9047056,1314740
289,858488,335128,5392,858488,335128,5392,542,9084204,1320647
290,858672,335008,5389,858672,335008,5389,541,9111624,1325334
291,844864,342344,5508,844864,342344,5508,1167,9167492,1331716
292,858616,339664,5477,858616,339664,5477,571,9210060,1338170
293,858648,339584,5475,858648,339584,5475,710,9242945,1343234
294,858608,338800,5465,858608,338800,5465,601,9278968,1348776
295,858648,335128,5419,858648,335128,5419,603,9317986,1354871
296,858544,332840,5388,858544,332840,5388,368,9359481,1362159
297,858656,330320,5360,858656,330320,5360,293,9403759,1370625
298,858464,328800,5333,858464,328800,5333,420,9449162,1378677
299,842344,328784,5336,842344,328784,5336,495,9499851,1386833
300,858656,328456,5331,858656,328456,5331,730,9533835,1391993
301,858656,329064,5345,858656,329064,5345,808,9585774,1399534
302,849424,326672,5300,849424,326672,5300,1011,9626030,1405596
303,858560,325344,5280,858560,325344,5280,936,9670758,1411476
304,858648,325304,5279,858648,325304,5279,276,9705526,1417934
305,858664,324984,5273,858664,324984,5273,337,9729453,1422357
306,854792,324792,5268,854792,324792,5268,750,9768208,1428225
307,858664,324560,5264,858664,324560,5264,584,9789213,1431803
308,858640,335248,5429,858640,335248,5429,1521,9844502,1438598
309,858664,338808,5485,858664,338808,5485,1194,9897416,1446383
310,858664,340752,5494,858664,340752,5494,1492,9950354,1453748
311,858664,343864,5541,858664,343864,5541,1388,10004449,1460994
312,858640,365064,5866,858640,365064,5866,1483,10070926,1469159
313,858592,361840,5795,858592,361840,5795,1346,10116276,1474666
314,858592,358672,5755,858592,358672,5755,1753,10160628,1480017
315,858664,374864,6015,858664,374864,6015,1557,10221829,1487296
316,858664,392072,6291,858664,392072,6291,1463,10283927,1494501
317,858664,389680,6255,858664,389680,6255,1285,10327373,1500194
318,853328,388136,6234,853328,388136,6234,1336,10375004,1506473
